# Fdb version 3
["pdflatex"] 1616793821 "/home/luca/Projects/Dispensa-Analisi-1/Dispensa di Analisi Matematica 1.tex" "/home/luca/Projects/Dispensa-Analisi-1/Dispensa di Analisi Matematica 1.pdf" "Dispensa di Analisi Matematica 1" 1616793821
  "/etc/texmf/web2c/texmf.cnf" 1611430570 475 c0e671620eb5563b2130f56340a5fde8 ""
  "/home/luca/Projects/Dispensa-Analisi-1/Dispensa di Analisi Matematica 1.aux" 1616793821 8 a94a2480d3289e625eea47cd1b285758 ""
  "/home/luca/Projects/Dispensa-Analisi-1/Dispensa di Analisi Matematica 1.tex" 1616793820 6737 6f65df276a46d70b8c07093fc8223f71 ""
  "/home/luca/Projects/Dispensa-Analisi-1/nimbusmono.sty" 0 -1 0 ""
  "/usr/share/texlive/texmf-dist/fonts/map/fontname/texfonts.map" 1577235249 3524 cb3e574dea2d1052e39280babc910dc8 ""
  "/usr/share/texlive/texmf-dist/fonts/tfm/public/cm/cmr10.tfm" 1136768653 1296 45809c5a464d5f32c8f98ba97c1bb47f ""
  "/usr/share/texlive/texmf-dist/tex/generic/atbegshi/atbegshi.sty" 1575674566 24708 5584a51a7101caf7e6bbf1fc27d8f7b1 ""
  "/usr/share/texlive/texmf-dist/tex/generic/babel-italian/italian.ldf" 1575497931 11158 4b4070404f34892b04d2a98137580bca ""
  "/usr/share/texlive/texmf-dist/tex/generic/babel/babel.def" 1581719732 87344 ec128793fb5196bbcc1741e5366ddac1 ""
  "/usr/share/texlive/texmf-dist/tex/generic/babel/babel.sty" 1581719732 18844 909add1631725af40d27125357ea816e ""
  "/usr/share/texlive/texmf-dist/tex/generic/babel/switch.def" 1581719732 15529 e761dc130df77f0ce9717a25d1b52a95 ""
  "/usr/share/texlive/texmf-dist/tex/generic/babel/txtbabel.def" 1580769195 5220 42a6518b499d20676051f269c61f4d9a ""
  "/usr/share/texlive/texmf-dist/tex/generic/bigintcalc/bigintcalc.sty" 1576625341 40635 c40361e206be584d448876bba8a64a3b ""
  "/usr/share/texlive/texmf-dist/tex/generic/bitset/bitset.sty" 1576016050 33961 6b5c75130e435b2bfdb9f480a09a39f9 ""
  "/usr/share/texlive/texmf-dist/tex/generic/etexcmds/etexcmds.sty" 1576625273 7734 b98cbb34c81f667027c1e3ebdbfce34b ""
  "/usr/share/texlive/texmf-dist/tex/generic/iftex/ifluatex.sty" 1572645307 492 1994775aa15b0d1289725a0b1bbc2d4c ""
  "/usr/share/texlive/texmf-dist/tex/generic/iftex/iftex.sty" 1573336935 6902 30fdaf7dc5636b8e3afa306210c45cae ""
  "/usr/share/texlive/texmf-dist/tex/generic/iftex/ifxetex.sty" 1572645307 488 4565444a3e75e59cb2702dc42e18f482 ""
  "/usr/share/texlive/texmf-dist/tex/generic/infwarerr/infwarerr.sty" 1575499628 8356 7bbb2c2373aa810be568c29e333da8ed ""
  "/usr/share/texlive/texmf-dist/tex/generic/intcalc/intcalc.sty" 1576625065 31769 002a487f55041f8e805cfbf6385ffd97 ""
  "/usr/share/texlive/texmf-dist/tex/generic/kvdefinekeys/kvdefinekeys.sty" 1576878844 5412 d5a2436094cd7be85769db90f29250a6 ""
  "/usr/share/texlive/texmf-dist/tex/generic/kvsetkeys/kvsetkeys.sty" 1576624944 13807 952b0226d4efca026f0e19dd266dcc22 ""
  "/usr/share/texlive/texmf-dist/tex/generic/ltxcmds/ltxcmds.sty" 1576624883 18552 1e1cc7b75da0dfaacce7cdcb27d306bf ""
  "/usr/share/texlive/texmf-dist/tex/generic/pdfescape/pdfescape.sty" 1576015897 19007 15924f7228aca6c6d184b115f4baa231 ""
  "/usr/share/texlive/texmf-dist/tex/generic/uniquecounter/uniquecounter.sty" 1576624663 7008 f92eaa0a3872ed622bbf538217cd2ab7 ""
  "/usr/share/texlive/texmf-dist/tex/generic/xkeyval/xkeyval.tex" 1417732693 19231 26434a5656c684f5ffb1f26f98006baa ""
  "/usr/share/texlive/texmf-dist/tex/generic/xkeyval/xkvutils.tex" 1403829539 7677 6f5ce7c1124cad7ec57d05b2562bd8fe ""
  "/usr/share/texlive/texmf-dist/tex/latex/amscls/amsthm.sty" 1513722769 12604 3dec726c041422879dc3268237f09026 ""
  "/usr/share/texlive/texmf-dist/tex/latex/amsfonts/amsfonts.sty" 1359763108 5949 3f3fd50a8cc94c3d4cbf4fc66cd3df1c ""
  "/usr/share/texlive/texmf-dist/tex/latex/amsmath/amsbsy.sty" 1523134290 2211 ca7ce284ab93c8eecdc6029dc5ccbd73 ""
  "/usr/share/texlive/texmf-dist/tex/latex/amsmath/amsgen.sty" 1523134290 4161 7f6eb9092061a11f87d08ed13515b48d ""
  "/usr/share/texlive/texmf-dist/tex/latex/amsmath/amsmath.sty" 1580683321 85660 baee036978c7a91f4e2bba43f05e5945 ""
  "/usr/share/texlive/texmf-dist/tex/latex/amsmath/amsopn.sty" 1523134290 4116 32e6abd27229755a83a8b7f18e583890 ""
  "/usr/share/texlive/texmf-dist/tex/latex/amsmath/amstext.sty" 1523134290 2432 8ff93b1137020e8f21930562a874ae66 ""
  "/usr/share/texlive/texmf-dist/tex/latex/appendix/appendix.sty" 1581200180 8878 d9f65b39ca82f1d70030390eca653b1c ""
  "/usr/share/texlive/texmf-dist/tex/latex/atveryend/atveryend.sty" 1576191570 19336 ce7ae9438967282886b3b036cfad1e4d ""
  "/usr/share/texlive/texmf-dist/tex/latex/auxhook/auxhook.sty" 1576625391 3935 57aa3c3e203a5c2effb4d2bd2efbc323 ""
  "/usr/share/texlive/texmf-dist/tex/latex/base/report.cls" 1580683321 23082 a0e9a5941c744eda6abe56770037a201 ""
  "/usr/share/texlive/texmf-dist/tex/latex/base/size11.clo" 1580683321 8462 61fdf79debfc3dc4dab35ec6cf83fbf7 ""
  "/usr/share/texlive/texmf-dist/tex/latex/etoolbox/etoolbox.sty" 1569190624 45259 743c52a37a6e5ed83cfe0e128b2da10d ""
  "/usr/share/texlive/texmf-dist/tex/latex/footmisc/footmisc.sty" 1312311212 25776 d28bd6d82f168f8cb2268584b67a2a98 ""
  "/usr/share/texlive/texmf-dist/tex/latex/graphics-cfg/color.cfg" 1459978653 1213 620bba36b25224fa9b7e1ccb4ecb76fd ""
  "/usr/share/texlive/texmf-dist/tex/latex/graphics-cfg/graphics.cfg" 1465944070 1224 978390e9c2234eab29404bc21b268d1e ""
  "/usr/share/texlive/texmf-dist/tex/latex/graphics-def/pdftex.def" 1515537368 17334 520b9b85ad8a2a48eda3f643e27a5179 ""
  "/usr/share/texlive/texmf-dist/tex/latex/graphics/dvipsnam.def" 1580683321 4944 1ddc361527c0bcf3d7b9f9b0c3c28113 ""
  "/usr/share/texlive/texmf-dist/tex/latex/graphics/graphics.sty" 1580683321 16932 04729abe63b66ec59ea56edcd722b058 ""
  "/usr/share/texlive/texmf-dist/tex/latex/graphics/graphicx.sty" 1580683321 9067 1b996612394a52e1efe89c8bfe8a5892 ""
  "/usr/share/texlive/texmf-dist/tex/latex/graphics/keyval.sty" 1580683321 2590 e3b24ff953e5b58d924f163d25380312 ""
  "/usr/share/texlive/texmf-dist/tex/latex/graphics/trig.sty" 1580683321 3976 d7fa7d81d2870d509d25b17d0245e735 ""
  "/usr/share/texlive/texmf-dist/tex/latex/hycolor/hycolor.sty" 1580250785 17914 4c28a13fc3d975e6e81c9bea1d697276 ""
  "/usr/share/texlive/texmf-dist/tex/latex/hyperref/hpdftex.def" 1579642962 50630 3d9728faf8630190cf601ce2cbe470d9 ""
  "/usr/share/texlive/texmf-dist/tex/latex/hyperref/hyperref.sty" 1579642962 238752 60dd338d71b6a4ab2192131f73dc908b ""
  "/usr/share/texlive/texmf-dist/tex/latex/hyperref/pd1enc.def" 1579642962 14134 32b36577d311ddb6522413c7581ee968 ""
  "/usr/share/texlive/texmf-dist/tex/latex/imakeidx/imakeidx.sty" 1476653784 13125 125eef0f7c172b11b3241e78413dc5e1 ""
  "/usr/share/texlive/texmf-dist/tex/latex/kvoptions/kvoptions.sty" 1575152344 22520 c4c2dab203104295e1e618be7e5c0f5b ""
  "/usr/share/texlive/texmf-dist/tex/latex/letltxmacro/letltxmacro.sty" 1575499565 5766 13a9e8766c47f30327caf893ece86ac8 ""
  "/usr/share/texlive/texmf-dist/tex/latex/multirow/multirow.sty" 1559339157 5486 a1d954b09782ba0acd8a8abfd98e1028 ""
  "/usr/share/texlive/texmf-dist/tex/latex/pdftexcmds/pdftexcmds.sty" 1574631863 19963 36fd8e818f9f0f32e2db8413d4970122 ""
  "/usr/share/texlive/texmf-dist/tex/latex/rerunfilecheck/rerunfilecheck.sty" 1575674187 9715 b051d5b493d9fe5f4bc251462d039e5f ""
  "/usr/share/texlive/texmf-dist/tex/latex/titlesec/titlesec.sty" 1571259403 48596 2b6a95da931c07a430b1a61904aaa42d ""
  "/usr/share/texlive/texmf-dist/tex/latex/tools/longtable.sty" 1580683321 12133 b1e3e65b69714dbfcc5e6c0b19d66b50 ""
  "/usr/share/texlive/texmf-dist/tex/latex/tools/multicol.sty" 1580683321 31532 04852e45d7c17cb384689d2f83b628d3 ""
  "/usr/share/texlive/texmf-dist/tex/latex/url/url.sty" 1388531844 12796 8edb7d69a20b857904dd0ea757c14ec9 ""
  "/usr/share/texlive/texmf-dist/tex/latex/xcolor/xcolor.sty" 1463002160 55589 34128738f682d033422ca125f82e5d62 ""
  "/usr/share/texlive/texmf-dist/tex/latex/xkeyval/xkeyval.sty" 1417732693 4962 9c1069474ff71dbc47d5006555e352d3 ""
  "/usr/share/texlive/texmf-dist/web2c/texmf.cnf" 1581979058 38841 ce3692aa899bb693b90b87eaa5d4d84e ""
  "/usr/share/texmf/web2c/texmf.cnf" 1581979058 38841 ce3692aa899bb693b90b87eaa5d4d84e ""
  "/var/lib/texmf/web2c/pdftex/pdflatex.fmt" 1616772688 4797492 ad42a6ef75bbb5405066479198023440 ""
  "Dispensa di Analisi Matematica 1.tex" 1616793820 6737 6f65df276a46d70b8c07093fc8223f71 ""
  "nimbusmono.sty" 0 -1 0 ""
  (generated)
  "Dispensa di Analisi Matematica 1.log"
  "/home/luca/Projects/Dispensa-Analisi-1/Dispensa di Analisi Matematica 1.log"
  "/home/luca/Projects/Dispensa-Analisi-1/Dispensa di Analisi Matematica 1.pdf"
